# Geometriefile fuer den Tunejump-Panofsky-Magnet
# mit Spiegelstroemen. Fuer das Programm multiskin
#
# Erstellt im Aug. 1997  von MArkus Hoffmann
# Letzte Bearbeitung: Aug 1997
# 16 Leiter

# Aufbau der Zeilen:
# Koordinaten in mm, Strom in A, spec. Widerstand in 1e-8 Ohm Meter 
# xmin   xmax  ymin ymax  zlaenge strom  rho 

# Bereich der berechnet werden soll
-40    40     -40     40    600     0    0

# Eigentliche Leiter

-29.25 -17.25 -35    -31    500    500 1.69
-13.75  -1.75 -35    -31    500    500 1.69
  1.75  13.75 -35    -31    500    500 1.69
 17.25  29.25 -35    -31    500    500 1.69

-29.25 -17.25  31     35    500    500 1.69
-13.75  -1.75  31     35    500    500 1.69
  1.75  13.75  31     35    500    500 1.69
 17.25  29.25  31     35    500    500 1.69

-35    -31    -29.25 -17.25 500   -500 1.69
-35    -31    -13.75  -1.75 500   -500 1.69
-35    -31      1.75  13.75 500   -500 1.69
-35    -31     17.25  29.25 500   -500 1.69

 31     35    -29.25 -17.25 500   -500 1.69
 31     35    -13.75  -1.75 500   -500 1.69
 31     35      1.75  13.75 500   -500 1.69
 31     35     17.25  29.25 500   -500 1.69
           
#int  iMin[NCOIL]={-29,-14,  2, 17,  31,  31,  31,  31,-29,-14,  2, 17, -35, -35, -35, -35};
#int  iMax[NCOIL]={-17, -2, 14, 29,  35,  35,  35,  35,-17, -2, 14, 29, -31, -31, -31, -31};
#int  jMin[NCOIL]={-35,-35,-35,-35, -29, -14,   2,  17, 31, 31, 31, 31, -29, -14,   2,  17};
#int  jMax[NCOIL]={-31,-31,-31,-31, -17,  -2,  14,  29, 35, 35, 35, 35, -17,  -2,  14,  29};
#int  sign[NCOIL]={  1,  1,  1,  1,  -1,  -1,  -1,  -1,  1,  1,  1,  1,  -1,  -1,  -1,  -1};
#int strom[NCOIL]={500,500,500,500,-500,-500,-500,-500,500,500,500,500,-500,-500,-500,-500};
